﻿division_template = {
	name = "Motastralkovaya Brigada" #Armored Inf

	regiments = {
		Arm_Inf_Bat = { x = 0 y = 0 }
		Arm_Inf_Bat = { x = 0 y = 1 }
		Mech_Inf_Bat = { x = 0 y = 2 }
		armor_Bat = { x = 1 y = 0 }
		SP_Arty_Bat = { x = 2 y = 0 }
		SP_Arty_Bat = { x = 2 y = 1 }
		SP_Arty_Bat = { x = 2 y = 2 }
		SP_AA_Bat = { x = 2 y = 3 }
		Mech_Inf_Bat = { x = 3 y = 0 }
		Mech_Inf_Bat = { x = 3 y = 1 }
	}
	priority = 2
}

division_template = {
	name = "Tankovaya Brigada"

	regiments = {
		armor_Bat = { x = 0 y = 0 }
		armor_Bat = { x = 0 y = 1 }
		armor_Bat = { x = 0 y = 2 }
		Arm_Inf_Bat = { x = 1 y = 0 }
		SP_Arty_Bat = { x = 2 y = 0 }
		SP_Arty_Bat = { x = 2 y = 1 }
		SP_AA_Bat = { x = 2 y = 2 }
		Arm_Inf_Bat = { x = 3 y = 0 }
		Mech_Inf_Bat = { x = 3 y = 1 }
	}
}

division_template = {
	name = "Mabilnaya Brigada"					#Mobile Brigade

	regiments = {
		Arm_Air_Inf_Bat = { x = 0 y = 0 }
		Arm_Air_Inf_Bat = { x = 0 y = 1 }
		Mech_Air_Inf_Bat = { x = 0 y = 2 }
	}

	support = {
		Arty_Battery = { x = 0 y = 0 }
		L_Engi_Comp = { x = 0 y = 1 }
	}
}

division_template = {
	name = "Desantno-Sturmovaja Brigada"		#Mobile Brigade Heli

	regiments = {
		Arm_Air_assault_Bat = { x = 0 y = 0 }
		Arm_Air_assault_Bat = { x = 0 y = 1 }
		Arm_Air_assault_Bat = { x = 0 y = 2 }
	}

	support = {
		Arty_Battery = { x = 0 y = 0 }
		L_Engi_Comp = { x = 0 y = 1 }
	}
}

division_template = {
	name = "Brigada Spetsnaza"					#Spetsnaz Brigade

	regiments = {
		Special_Forces = { x = 0 y = 0 }
		Special_Forces = { x = 0 y = 1 }
		Special_Forces = { x = 0 y = 2 }
		Special_Forces = { x = 0 y = 3 }
	}

	priority = 2
}

units = {
	division = {
		name = "30-ya Asobnaya Mekhanizavanaya Brigada"
		location = 11370		#Minsk
		division_template = "Motastralkovaya Brigada"
		start_experience_factor = 0.3
		start_equipment_factor = 0.01
	}

	division = {
		name = "31-ya Asobny Mekhanizavany Batalyon"
		location = 3331		#Zaslonova
		division_template = "Motastralkovaya Brigada"
		start_experience_factor = 0.3
		start_equipment_factor = 0.01
	}

	division = {
		name = "5-ya Tankovaya Brigada"
		location = 3293		#
		division_template = "Tankovaya Brigada"
		start_experience_factor = 0.3
		start_equipment_factor = 0.01
	}

	division = {
		name = "6-ya Asobnaya Mekhanizavanaya Brigada"
		location = 3393			#Grodno
		division_template = "Motastralkovaya Brigada"
		start_experience_factor = 0.3
		start_equipment_factor = 0.01
	}

	division = {
		name = "50-ya Asobnaya Mekhanizavanaya Brigada"
		location = 9304		#Baranovichi
		division_template = "Motastralkovaya Brigada"
		start_experience_factor = 0.3
		start_equipment_factor = 0.01
	}

	division = {
		name = "11-ya Asobnaya Mekhanizavanaya Brigada"
		location = 6359			#Slonim
		division_template = "Motastralkovaya Brigada"
		start_experience_factor = 0.3
		start_equipment_factor = 0.01
	}

	division = {
		name = "38-ya Asobnaya Mabilnaya Brigada"
		location = 3392		#Brest
		division_template = "Desantno-Sturmovaja Brigada"
		start_experience_factor = 0.5
		start_equipment_factor = 0.01
	}

	division = {
		name = "11-ya Asobnaya Mabilnaya Brigada"
		location = 6371		#Polotsk
		division_template = "Mabilnaya Brigada" #ok
		start_experience_factor = 0.5
		start_equipment_factor = 0.01
	}

	division = {
		name = "5-ya Brigada Spetsnaza"	#ok
		location = 11370		#Maryina Horka
		division_template = "Brigada Spetsnaza"
		start_experience_factor = 0.7
		start_equipment_factor = 0.01
	}
}

instant_effect = {
	add_equipment_to_stockpile = {
		type = L_Strike_fighter2		#L-39
		amount = 10
		producer = CZE
	}

	add_equipment_to_stockpile = {
		type = mbt_hull_1
		variant_name = "T-72B"
		amount = 646
		producer = SOV
	}

	add_equipment_to_stockpile = {
		type = mbt_hull_1
		variant_name = "T-80"
		amount = 95
		producer = SOV
	}

	add_equipment_to_stockpile = {
		type = IFV_3			#BMP-2
		amount = 975
		producer = SOV
	}

	add_equipment_to_stockpile = {
		type = IFV_1			#BMP-1
		amount = 81
		producer = SOV
	}

	add_equipment_to_stockpile = {
		type = IFV_1
		amount = 154
		producer = SOV
	}

	add_equipment_to_stockpile = {
		type = APC_4			#BTR-80
		amount = 193
		producer = SOV
	}

	add_equipment_to_stockpile = {
		type = APC_3			#BTR-70
		amount = 445
		producer = SOV
	}

	add_equipment_to_stockpile = {
		type = APC_2			#MT-LB
		amount = 92
		producer = SOV
	}

	add_equipment_to_stockpile = {
		type = SP_R_arty_1	#BM-30 Smerch
		#version_name = "BM-30 Smerch"
		amount = 36
		producer = SOV
	}

	add_equipment_to_stockpile = {
		type = SP_R_arty_0	#BM-21 Grad
		amount = 126
		producer = SOV
	}

	add_equipment_to_stockpile = {
		type = SP_R_arty_1	#BM-27 Uragan
		amount = 72
		producer = SOV
	}

	add_equipment_to_stockpile = {
		type = SP_arty_1		#2S19 Msta
		amount = 12
		producer = SOV
	}

	add_equipment_to_stockpile = {
		type = SP_arty_0		#2S3 Akatsiya
		amount = 108
		producer = SOV
	}

	add_equipment_to_stockpile = {
		type = SP_arty_0		#2S1 Gvozdika
		#version_name = "2S1 Gvozdika"
		amount = 198
		producer = SOV
	}

	add_equipment_to_stockpile = {
		type = SP_arty_0		#2S5 Giatsint-S
		#version_name = "2S5 Giatsint-S"
		amount = 116
		producer = SOV
	}

	add_equipment_to_stockpile = {
		type = SP_arty_0		#2S9 Nona
		#version_name = "2S9 Nona"
		amount = 48
		producer = SOV
	}

	add_equipment_to_stockpile = {
		type = artillery_0	#Various Soviet artillery pieces
		amount = 228
		producer = SOV
	}

	add_equipment_to_stockpile = {
		type = SP_Anti_Air_0		#SA-8 Osa
		amount = 250
		producer = SOV
	}

	add_equipment_to_stockpile = {
		type = SP_Anti_Air_1		#SA-13 Strela 10
		#version_name = "SA-13 Strela-10"
		amount = 40
		producer = SOV
	}

	add_equipment_to_stockpile = {
		type = SP_Anti_Air_1		#SA-15 Tor
		#version_name = "SA-15 Tor-M"
		amount = 8
		producer = SOV
	}

	add_equipment_to_stockpile = {
		type = command_control_equipment1
		amount = 600
		producer = SOV
	}

	add_equipment_to_stockpile = {
		type = Anti_Air_0
		amount = 1000
		producer = SOV
	}

	add_equipment_to_stockpile = {
		type = Anti_tank_1
		amount = 1000
		producer = SOV
	}

	add_equipment_to_stockpile = {
		type = Heavy_Anti_tank_1
		amount = 400
		producer = SOV
	}

	add_equipment_to_stockpile = {
		type = infantry_weapons1 #AK74
		amount = 10000
		producer = SOV
	}

	#Aircraft
	add_equipment_to_stockpile = {
		type = MR_Fighter2		#MiG-29
		amount = 50
		producer = SOV
	}

	add_equipment_to_stockpile = {
		type = AS_Fighter1		#MiG-23
		amount = 36
		producer = SOV
	}

	add_equipment_to_stockpile = {
		type = AS_Fighter2		#MiG-27
		amount = 34
		producer = SOV
	}

	add_equipment_to_stockpile = {
		type = AS_Fighter1		#MiG-23
		amount = 42
		producer = SOV
	}

	add_equipment_to_stockpile = {
		type = cas2				#Su-25
		amount = 80
		producer = SOV
	}

	add_equipment_to_stockpile = {
		type = transport_plane2			#Il-76 + An-26 so they can form a sqdrn
		amount = 24
		producer = SOV
	}

	add_equipment_to_stockpile = {
		type = attack_helicopter1		#Mi-24
		amount = 69
		producer = SOV
	}

	add_equipment_to_stockpile = {
		type = transport_helicopter1		#Mi-8
		amount = 160
		producer = SOV
	}

	add_equipment_to_stockpile = {
		type = transport_helicopter2		#Mi-26
		amount = 14
		producer = SOV
	}
}