﻿division_template = {
	name = "Jalaväebrigaad"

	regiments = {
		Mech_Inf_Bat = { x = 0 y = 0 }
		Arm_Inf_Bat = { x = 0 y = 1 }
		Mot_Inf_Bat = { x = 0 y = 2 }
		Arty_Bat = { x = 0 y = 3 }
		Mech_Inf_Bat = { x = 0 y = 4 }
	}

}

division_template = {
	name = "Jalaväepataljon"

	regiments = {
		Mech_Inf_Bat = { x = 0 y = 0 }
	}

}

units = {


	division = {
		name = "1. Jalaväebrigaad"
		location = 9079		#Tapa
		division_template = "Jalaväebrigaad"
		start_experience_factor = 0.4
		start_equipment_factor = 0.01
	}

	division = {
		name = "2. Jalaväebrigaad"
		location = 9221		#Luunja
		division_template = "Jalaväepataljon"
		start_experience_factor = 0.4
		start_equipment_factor = 0.01
	}
}

instant_effect = {

	add_equipment_to_stockpile = {
		type = IFV_5	 #CV-90 MkIII
		amount = 44
		producer = SWE
	}

	add_equipment_to_stockpile = {
		type = APC_3	 #Patria XA-180/XA-188
		amount = 136
		producer = FIN
	}

	add_equipment_to_stockpile = {
		type = APC_4	 #BTR-80
		amount = 20
		producer = SOV
	}

	add_equipment_to_stockpile = {
		type = util_vehicle_3	 #Mamba APC
		amount = 7
		producer = SAF
	}

	add_equipment_to_stockpile = {
		type = infantry_weapons1		 #IMI Galil
		amount = 500
		producer = ISR
	}

	add_equipment_to_stockpile = {
		type = infantry_weapons		 #AK 4
		amount = 200
		producer = SWE
	}

	add_equipment_to_stockpile = {
		type = infantry_weapons		 #G3
		amount = 200
		producer = GER
	}

	add_equipment_to_stockpile = {
		type = infantry_weapons3		 #G36
		amount = 50
		producer = GER
	}

	add_equipment_to_stockpile = {
		type = Heavy_Anti_tank_1		 #MAPATS
		amount = 50
		producer = ISR
	}

	add_equipment_to_stockpile = {
		type = Heavy_Anti_tank_2		 #Javelin
		amount = 50
		producer = USA
	}

	add_equipment_to_stockpile = {
		type = Anti_tank_1		 #MILAN
		amount = 50
		producer = FRA
	}

	add_equipment_to_stockpile = {
		type = Anti_Air_1	 #Mistral
		amount = 40
		producer = FRA
	}

	add_equipment_to_stockpile = {
		type = artillery_1	 #FH-70
		amount = 24
		producer = ITA
	}

	add_equipment_to_stockpile = {
		type = artillery_0	 #D-30
		amount = 42
		producer = SOV
	}

	add_equipment_to_stockpile = {
		type = util_vehicle_1	 #DAF YA 4440
		amount = 100
		producer = HOL
	}

	add_equipment_to_stockpile = {
		type = util_vehicle_1	 #G-class Merc
		amount = 100
		producer = GER
	}

	add_equipment_to_stockpile = {
		type = L_Strike_fighter2	 #Aero L-39 Albatros
		amount = 2
		producer = CZE
	}

	add_equipment_to_stockpile = {
		type = command_control_equipment
		amount = 100
		producer = USA
	}

}
