﻿division_template = {
	name = "Respublikaliq Ulani"		#Republican Guard

	regiments = {
		Mot_Inf_Bat = { x = 0 y = 0 }
		Mot_Inf_Bat = { x = 0 y = 1 }
		Mot_Inf_Bat = { x = 0 y = 2 }

		Arty_Bat = { x = 0 y = 0 }
		Arty_Bat = { x = 0 y = 1 }
	}

	priority = 2
}

division_template = {
	name = "Motoatqishtar Brïgada"		#Motor rifle brigade

	regiments = {
		armor_Bat = { x = 0 y = 0 }
		Mech_Inf_Bat = { x = 0 y = 1 }
		Mech_Inf_Bat = { x = 0 y = 2 }
		Arm_Inf_Bat = { x = 0 y = 3 }

		SP_Arty_Bat = { x = 1 y = 0 }
		SP_Arty_Bat = { x = 1 y = 1 }
	}
	support = {
		SP_AA_Battery = { x = 0 y = 0 }
		H_Engi_Comp = { x = 0 y = 1 }
		armor_Recce_Comp = { x = 0 y = 2 }
	}
}

division_template = {
	name = "Tank Brïgada"		#Motor rifle brigade

	regiments = {
		armor_Bat = { x = 0 y = 0 }
		armor_Bat = { x = 0 y = 1 }
		armor_Bat = { x = 0 y = 2 }
		Arm_Inf_Bat = { x = 0 y = 3 }

		SP_Arty_Bat = { x = 1 y = 0 }
		SP_Arty_Bat = { x = 1 y = 1 }
	}
	support = {
		SP_AA_Battery = { x = 0 y = 0 }
		H_Engi_Comp = { x = 0 y = 1 }
		armor_Recce_Comp = { x = 0 y = 2 }
	}
}

division_template = {
	name = "Taw Bataloni"		#mountain battalion

	regiments = {
		L_Inf_Bat = { x = 0 y = 0 }
	}
}

division_template = {
	name = "Äwe Shabwildawshi Brïgada"		#air assault brigade

	regiments = {
		L_Air_assault_Bat = { x = 0 y = 0 }
		L_Air_assault_Bat = { x = 0 y = 1 }
		L_Air_assault_Bat = { x = 0 y = 2 }
		Arty_Bat = { x = 0 y = 3 }
	}
}

units = {
	division = {
		name = "3-shi Jeke Motoatqishtar Brïgadasi"
		location = 1864 		#Usharal
		division_template = "Motoatqishtar Brïgada"
		start_experience_factor = 0.4
		start_equipment_factor = 0.01
	}
	division = {
		name = "1-shi Respublikaliq Ulani Brigada"
		location = 10308 	#Astana
		division_template = "Respublikaliq Ulani"
		start_experience_factor = 0.5
		start_equipment_factor = 0.01
	}
	division = {
		name = "2-shi Respublikaliq Ulani Brigada"
		location = 10308 		#Astana
		division_template = "Respublikaliq Ulani"
		start_experience_factor = 0.5
		start_equipment_factor = 0.01
	}
	division = {
		name = "4-shi Jeke Motoatqishtar Brïgadasi"
		location = 1864 		#Ust-Kamenogorsk
		division_template = "Motoatqishtar Brïgada"
		start_experience_factor = 0.4
		start_equipment_factor = 0.01
	}
	division = {
		name = "5-shi Jeke Motoatqishtar Brïgadasi"
		location = 10603 		#Taraz
		division_template = "Motoatqishtar Brïgada"
		start_experience_factor = 0.4
		start_equipment_factor = 0.01
	}
	division = {
		name = "6-shi Jeke Motoatqishtar Brïgadasi"
		location = 10148 		#Shymkent
		division_template = "Motoatqishtar Brïgada"
		start_experience_factor = 0.4
		start_equipment_factor = 0.01
	}
	division = {
		name = "7-shi Jeke Motoatqishtar Brïgadasi"
		location = 4333 		#Karagandy
		division_template = "Motoatqishtar Brïgada"
		start_experience_factor = 0.4
		start_equipment_factor = 0.01
	}
	division = {
		name = "35-shi Äwe Shabwildawshi Brïgada"
		location = 10547 		#Kapshagai
		division_template = "Äwe Shabwildawshi Brïgada"
		start_experience_factor = 0.5
		start_equipment_factor = 0.01
	}
	division = {
		name = "36-shi Äwe Shabwildawshi Brïgada"
		location = 10308 		#Astana
		division_template = "Äwe Shabwildawshi Brïgada"
		start_experience_factor = 0.5
		start_equipment_factor = 0.01
	}
	division = {
		name = "37-shi Äwe Shabwildawshi Brïgada"
		location = 10619 		#Taldykorgan
		division_template = "Äwe Shabwildawshi Brïgada"
		start_experience_factor = 0.5
		start_equipment_factor = 0.01
	}
	division = {
		name = "38-shi Äwe Shabwildawshi Brïgada"
		location = 13210 		#Almaty
		division_template = "Äwe Shabwildawshi Brïgada"
		start_experience_factor = 0.5
		start_equipment_factor = 0.01
	}
}

instant_effect = {
	add_equipment_to_stockpile = {
		type = L_Strike_fighter2		#L-39
		amount = 17
		producer = CZE
	}

	add_equipment_to_stockpile = {
		type = infantry_weapons1		#AK-74
		amount = 7000
		producer = SOV
	}

	add_equipment_to_stockpile = {
		type = command_control_equipment2
		amount = 1000
		producer = SOV
	}

	add_equipment_to_stockpile = {
		type = Heavy_Anti_tank_1
		amount = 200
		producer = SOV
	}

	add_equipment_to_stockpile = {
		type = Anti_tank_1
		amount = 400
		producer = SOV
	}

	add_equipment_to_stockpile = {
		type = Anti_Air_0
		amount = 400
		producer = SOV
	}

	## Vehicles
	add_equipment_to_stockpile = {
		type = MBT_2		#T-72B
		#version_name = "T-72B"
		amount = 650
		producer = SOV
	}
	add_equipment_to_stockpile = {
		type = IFV_2		#BRM
		amount = 65
		producer = SOV
	}
	add_equipment_to_stockpile = {
		type = IFV_3		#BMP-2
		amount = 300
		producer = SOV
	}
	add_equipment_to_stockpile = {
		type = IFV_1		#BMP-1
		amount = 200
		producer = SOV
	}
	add_equipment_to_stockpile = {
		type = APC_4		#BTR-80
		amount = 84
		producer = SOV
	}
	add_equipment_to_stockpile = {
		type = APC_2		#MT-LB
		amount = 686
		producer = SOV
	}
	add_equipment_to_stockpile = {
		type = Rec_tank_0		#BRDM-2
		#version_name = "BRDM-2"
		amount = 140
		producer = UKR
	}
	add_equipment_to_stockpile = {
		type = util_vehicle_0		#truck
		amount = 400
		producer = SOV
	}

	add_equipment_to_stockpile = {
		type = SP_R_arty_1		#BM-27 uragan
		amount = 90
		producer = SOV
	}
	add_equipment_to_stockpile = {
		type = SP_R_arty_0		#BM-21 Grad
		amount = 57
		producer = SOV
	}

	add_equipment_to_stockpile = {
		type = SP_arty_0		#2s3 Akatsiya
		amount = 89
		producer = SOV
	}
	add_equipment_to_stockpile = {
		type = SP_arty_0		#2s1 gvozdika
		#version_name = "2S1 Gvozdika"
		amount = 74
		producer = SOV
	}

	add_equipment_to_stockpile = {
		type = artillery_0		#D-30
		amount = 300
		producer = SOV
	}

	add_equipment_to_stockpile = {
		type = SP_Anti_Air_0		#SA-6
		#version_name = "SA-6 Gainful"
		amount = 20
		producer = SOV
	}

	add_equipment_to_stockpile = {
		type = SP_Anti_Air_0		#S-125
		#version_name = "S-125 Pechora"
		amount = 20
		producer = SOV
	}

	add_equipment_to_stockpile = {
		type = AS_Fighter1		#MiG-23
		amount = 24
		producer = SOV
	}

	add_equipment_to_stockpile = {
		type = Strike_fighter2		#MiG-27
		#version_name = "MiG-27 Flogger"
		amount = 24
		producer = SOV
	}

	add_equipment_to_stockpile = {
		type = MR_Fighter2		#MiG-29
		amount = 40
		producer = SOV
	}

	add_equipment_to_stockpile = {
		type = Strike_fighter2		#Su-24 Fencer
		amount = 37
		producer = SOV
	}

	add_equipment_to_stockpile = {
		type = AS_Fighter2		#MiG-31
		amount = 43
		producer = SOV
	}

	add_equipment_to_stockpile = {
		type = cas1		#SU-25
		amount = 25
		producer = SOV
	}

	add_equipment_to_stockpile = {
		type = transport_helicopter1		#mi-8/17
		amount = 380
		producer = SOV
	}
}