﻿division_template = {
	name = "Infantry Brigade"

	regiments = {
		L_Inf_Bat = { x = 0 y = 0 }
		L_Inf_Bat = { x = 0 y = 1 }
		L_Inf_Bat = { x = 0 y = 2 }
	}
}

division_template = {
	name = "Airborne Battalion"

	regiments = {
		L_Air_Inf_Bat = { x = 0 y = 0 }
	}
	priority = 2
}

units = {

	division = {
		name = "1st Infantry Brigade"
		location = 12986
		division_template = "Infantry Brigade"
		start_experience_factor = 0.1
		start_equipment_factor = 0.01
	}

	division = {
		name = "2nd Infantry Brigade"
		location = 11180
		division_template = "Infantry Brigade"
		start_experience_factor = 0.1
		start_equipment_factor = 0.01
	}

	division = {
		name = "Airborne Battalion"
		location = 12986
		division_template = "Airborne Battalion"
		start_experience_factor = 0.2
		start_equipment_factor = 0.01
	}

}

instant_effect = {

	add_equipment_to_stockpile = {
		type = command_control_equipment
		amount = 200
		producer = SOV
	}

	add_equipment_to_stockpile = {
		type = infantry_weapons		 #AKM
		amount = 1500
		producer = SOV
	}

	add_equipment_to_stockpile = {
		type = Anti_Air_0		 #bLOWpIPE
		amount = 15
		producer = ENG
	}

 }