﻿units = {

	### Naval OOB ###
	fleet = {
	   name = "Nigerian Navy"
	   naval_base = 2050
		task_force = {
			name = "Nigerian Navy"
			location = 2050
			ship = { name = "NNS Centenary" definition = corvette start_experience_factor = 0.15 equipment = { corvette_2 = { amount = 1 owner = NIG creator = CHI } } }
			ship = { name = "NNS Unity" definition = corvette start_experience_factor = 0.15 equipment = { corvette_2 = { amount = 1 owner = NIG creator = CHI } } }
		}
	}
}
