﻿#Author: Captain Gen
division_template = {
	name = "Brigade de Conscripts"
	
	regiments = {
		L_Inf_Bat = { x = 0 y = 0 }
		L_Inf_Bat = { x = 0 y = 1 }
		L_Inf_Bat = { x = 1 y = 0 }
		L_Inf_Bat = { x = 1 y = 1 }
	}
}

division_template = {
	name = "Mechanized Brigade"
	
	regiments = {
	   Mech_Inf_Bat = { x = 0 y = 0 }
	   Arm_Inf_Bat = { x = 0 y = 1 }
		Mot_Inf_Bat = { x = 1 y = 0 }
	   Arty_Bat = { x = 1 y = 1 }
		Mech_Inf_Bat = { x = 2 y = 0 }
	}
	
	support = { 
		armor_Comp = { x = 0 y = 0 }
		armor_Recce_Comp = { x = 0 y = 1 }
	}
}


units = {
	division = {
		name = "1ere Brigade"
		location = 12149
		division_template = "Brigade de Conscripts"
		start_experience_factor = 0.1
		start_equipment_factor = 0.5
	}
	
	division = {
		name = "2e Brigade"
		location = 4345
		division_template = "Brigade de Conscripts"
		start_experience_factor = 0.1
		start_equipment_factor = 0.5
	}
	
	division = {
		name = "3e Brigade"
		location = 12291
		division_template = "Brigade de Conscripts"
		start_experience_factor = 0.1
		start_equipment_factor = 0.5
	}
	
	division = {
		name = "4e Brigade"
		location = 10230
		division_template = "Brigade de Conscripts"
		start_experience_factor = 0.1
		start_equipment_factor = 0.5
	}
	
	division = {
		name = "5e Brigade"
		location = 7345
		division_template = "Brigade de Conscripts"
		start_experience_factor = 0.1
		start_equipment_factor = 0.5
	}
	
	division = {
		name = "6e Brigade"
		location = 9601
		division_template = "Brigade de Conscripts"
		start_experience_factor = 0.1
		start_equipment_factor = 0.5
	}
	
	division = {
		name = "7e Brigade"
		location = 12223
		division_template = "Brigade de Conscripts"
		start_experience_factor = 0.1
		start_equipment_factor = 0.5
	}
	
	division = {
		name = "8e Brigade"
		location = 10715
		division_template = "Brigade de Conscripts"
		start_experience_factor = 0.1
		start_equipment_factor = 0.5
	}
	
	division = {
		name = "9e Brigade"
		location = 12600
		division_template = "Brigade de Conscripts"
		start_experience_factor = 0.1
		start_equipment_factor = 0.5
	}
	
	division = {
		name = "10e Brigade"
		location = 10621
		division_template = "Brigade de Conscripts"
		start_experience_factor = 0.1
		start_equipment_factor = 0.5
	}
	
	division = {
		name = "11e Brigade"
		location = 12276
		division_template = "Brigade de Conscripts"
		start_experience_factor = 0.1
		start_equipment_factor = 0.5
	}
	
	division = {
		name = "5e Groupe-brigade mécanisé"
		location = 7291
		division_template = "Mechanized Brigade"
		start_experience_factor = 0.75
		start_equipment_factor = 0.75
	}
	
}