﻿division_template = {
	name = "Armored Brigade"

	regiments = {
		armor_Bat = { x = 0 y = 0 }
		Mech_Inf_Bat = { x = 0 y = 1 }
		Arm_Inf_Bat = { x = 0 y = 2 }
	}
	support = {
		H_Engi_Comp = { x = 0 y = 0 }
		SP_Arty_Battery = { x = 0 y = 1 }
	}
}

division_template = {
	name = "Airborne Brigade"

	regiments = {
		L_Air_Inf_Bat = { x = 0 y = 0 }
		L_Air_Inf_Bat = { x = 0 y = 1 }

	}
	support = {
		L_Engi_Comp = { x = 0 y = 0 }
		Arty_Battery = { x = 0 y = 1 }
	}
}

division_template = {
	name = "Infantry Brigade"

	regiments = {
		L_Inf_Bat = { x = 0 y = 0 }
		L_Inf_Bat = { x = 0 y = 1 }

	}
	support = {
		L_Engi_Comp = { x = 0 y = 0 }
		Arty_Battery = { x = 0 y = 1 }
	}
}

division_template = {
	name = "Popular Defence Forces Brigade"

	regiments = {
		Militia_Bat = { x = 0 y = 0 }
		Militia_Bat = { x = 0 y = 1 }
		Militia_Bat = { x = 0 y = 2 }
		Militia_Bat = { x = 0 y = 3 }
	}
	priority = 0
}

division_template = {
	name = "South Sudan Defence Forces"

	regiments = {
		Militia_Bat = { x = 0 y = 0 }
		Militia_Bat = { x = 0 y = 1 }
		Militia_Bat = { x = 0 y = 2 }
	}
	priority = 0
}

units = {
	#ADD JANJAWEEDS THROUGH DECISION

	#5th Division
	division = {
		name = "51st Infantry Brigade"
		location = 2016		#El-Obeid
		division_template = "Infantry Brigade"
		start_experience_factor = 0.1
		start_equipment_factor = 0.01
	}
	division = {
		name = "52nd Infantry Brigade"
		location = 2016		#El-Obeid
		division_template = "Infantry Brigade"
		start_experience_factor = 0.1
		start_equipment_factor = 0.01
	}
	division = {
		name = "53rd Infantry Brigade"
		location = 2016		#El-Obeid
		division_template = "Infantry Brigade"
		start_experience_factor = 0.1
		start_equipment_factor = 0.01
	}

	#2nd Division
	division = {
		name = "21st Infantry Brigade"
		location = 2088		#Khashm El Girba
		division_template = "Infantry Brigade"
		start_experience_factor = 0.1
		start_equipment_factor = 0.01
	}
	division = {
		name = "22nd Infantry Brigade"
		location = 2088		#Khashm El Girba
		division_template = "Infantry Brigade"
		start_experience_factor = 0.1
		start_equipment_factor = 0.01
	}
	division = {
		name = "23rd Infantry Brigade"
		location = 2088		#Khashm El Girba
		division_template = "Infantry Brigade"
		start_experience_factor = 0.1
		start_equipment_factor = 0.01
	}

	#6th Division
	division = {
		name = "61st Infantry Brigade"
		location = 10739		#Al-Fashir
		division_template = "Infantry Brigade"
		start_experience_factor = 0.1
		start_equipment_factor = 0.01
	}
	division = {
		name = "62nd Infantry Brigade"
		location = 10739		#Al-Fashir
		division_template = "Infantry Brigade"
		start_experience_factor = 0.1
		start_equipment_factor = 0.01
	}
	division = {
		name = "63rd Infantry Brigade"
		location = 10739		#Al-Fashir
		division_template = "Infantry Brigade"
		start_experience_factor = 0.1
		start_equipment_factor = 0.01
	}

	#1st Division
	division = {
		name = "11th Infantry Brigade"
		location = 11608		#Juba
		division_template = "Infantry Brigade"
		start_experience_factor = 0.1
		start_equipment_factor = 0.50
	}
	division = {
		name = "12th Infantry Brigade"
		location = 11608		#Juba
		division_template = "Infantry Brigade"
		start_experience_factor = 0.1
		start_equipment_factor = 0.50
	}
	division = {
		name = "13th Infantry Brigade"
		location = 11608		#Juba
		division_template = "Infantry Brigade"
		start_experience_factor = 0.1
		start_equipment_factor = 0.50
	}

	#7th Armoured Division
	division = {
		name = "71st Armored Brigade"
		location = 12881		#Khartoum
		division_template = "Armored Brigade"
		start_experience_factor = 0.1
		start_equipment_factor = 0.01
	}
	division = {
		name = "72nd Armored Brigade"
		location = 12881		#Khartoum
		division_template = "Armored Brigade"
		start_experience_factor = 0.1
		start_equipment_factor = 0.01
	}
	division = {
		name = "73rd Armored Brigade"
		location = 12881		#Khartoum
		division_template = "Armored Brigade"
		start_experience_factor = 0.1
		start_equipment_factor = 0.01
	}

	#Airborne division
	division = {
		name = "1st Airborne Brigade"
		location = 12881		#Khartoum
		division_template = "Airborne Brigade"
		start_experience_factor = 0.1
		start_equipment_factor = 0.01
	}
	division = {
		name = "2nd Airborne Brigade"
		location = 12881		#Khartoum
		division_template = "Airborne Brigade"
		start_experience_factor = 0.1
		start_equipment_factor = 0.01
	}

	#Popular Defence Forces
	division = {
		name = "Murahiliin"
		location = 10851		#
		division_template = "Popular Defence Forces Brigade"
		start_experience_factor = 0.1
		start_equipment_factor = 0.01
	}
	division = {
		name = "Fursan"
		location = 11052		#
		division_template = "Popular Defence Forces Brigade"
		start_experience_factor = 0.1
		start_equipment_factor = 0.01
	}
	division = {
		name = "Army of Peace"
		location = 11044		#
		division_template = "Popular Defence Forces Brigade"
		start_experience_factor = 0.1
		start_equipment_factor = 0.01
	}

	#South Sudan Defence Forces
	division = {
		name = "1st SSDF Brigade"
		location = 11049		#
		division_template = "South Sudan Defence Forces"
		start_experience_factor = 0.1
		start_equipment_factor = 0.01
	}
	division = {
		name = "2nd SSDF Brigade"
		location = 13218		#
		division_template = "South Sudan Defence Forces"
		start_experience_factor = 0.1
		start_equipment_factor = 0.01
	}
	division = {
		name = "3rd SSDF Brigade"
		location = 4033		#
		division_template = "South Sudan Defence Forces"
		start_experience_factor = 0.1
		start_equipment_factor = 0.01
	}
	division = {
		name = "4th SSDF Brigade"
		location = 11040		#
		division_template = "South Sudan Defence Forces"
		start_experience_factor = 0.1
		start_equipment_factor = 0.01
	}
	division = {
		name = "5th SSDF Brigade"
		location = 11034		#
		division_template = "South Sudan Defence Forces"
		start_experience_factor = 0.1
		start_equipment_factor = 0.01
	}
}

instant_effect = {
	add_equipment_to_stockpile = {
		type = infantry_weapons1
		amount = 12000
		producer = SOV
	}
	add_equipment_to_stockpile = {
		type = command_control_equipment1
		amount = 1000
		producer = SOV
	}
	add_equipment_to_stockpile = {
		type = Anti_tank_1
		amount = 500
		producer = SOV
	}
	add_equipment_to_stockpile = {
		type = Heavy_Anti_tank_1
		amount = 50
		producer = SOV
	}
	add_equipment_to_stockpile = {
		type = Anti_Air_1
		amount = 400
		producer = SOV
	}
	add_equipment_to_stockpile = {
		type = mbt_hull_0
		variant_name = "M60A3"
		amount = 20
		producer = USA
	}
	add_equipment_to_stockpile = {
		type = mbt_hull_0
		variant_name = "T-55"
		amount = 150
		producer = SOV
	}
	add_equipment_to_stockpile = {
		type = Rec_tank_0 #Type 62
		amount = 20
		producer = CHI
		#version_name = "Type 62"
	}
	add_equipment_to_stockpile = {
		type = Rec_tank_0 #Panhard AML
		amount = 6
		producer = FRA
	}
	add_equipment_to_stockpile = {
		type = APC_1 #BRDM-2
		amount = 60
		producer = SOV
		#version_name = "BRDM-2"
	}
	add_equipment_to_stockpile = {
		type = Rec_tank_0 #Ferret Armoured Car
		amount = 80
		producer = ENG
	}
	add_equipment_to_stockpile = {
		type = Rec_tank_0 #Alvis Saladin
		amount = 30
		producer = ENG
		#version_name = "Alvis Saladin"
	}
	add_equipment_to_stockpile = {
		type = IFV_3 #BMP-2
		amount = 6
		producer = SOV
	}
	add_equipment_to_stockpile = {
		type = APC_2 #M113
		amount = 42
		producer = USA
	}
	add_equipment_to_stockpile = {
		type = APC_4 #BTR-80
		amount = 7
		producer = SOV
	}
	add_equipment_to_stockpile = {
		type = APC_1 #BTR-50
		amount = 63
		producer = SOV
		#version_name = "BTR-50"
	}
	add_equipment_to_stockpile = {
		type = APC_3 #BTR-70
		amount = 10
		producer = SOV
	}
	add_equipment_to_stockpile = {
		type = APC_1 #OT-62
		amount = 21
		producer = CZE
		#version_name = "OT-62"
	}
	add_equipment_to_stockpile = {
		type = APC_1 #OT-64
		amount = 21
		producer = CZE
	}
	add_equipment_to_stockpile = {
		type = APC_1 #Walid
		amount = 120
		producer = EGY
	}
	add_equipment_to_stockpile = {
		type = SP_arty_0 #Abu Fatma SPG
		amount = 66
	}
	add_equipment_to_stockpile = {
		type = SP_arty_0 #Mk F3 155mm
		amount = 10
		producer = FRA
	}
	add_equipment_to_stockpile = {
		type = artillery_0 #M101
		amount = 20
		producer = USA
		#version_name = "M101"
	}
	add_equipment_to_stockpile = {
		type = artillery_0 #Khalifa
		amount = 21
	}
	add_equipment_to_stockpile = {
		type = SP_arty_1 #Type-59-I
		amount = 75
		producer = CHI
		#version_name = "Type-59-I"
	}
	add_equipment_to_stockpile = {
		type = artillery_0 #M114
		amount = 12
		producer = USA
		#version_name = "M114"
	}
	add_equipment_to_stockpile = {
		type = SP_R_arty_0 #BM-21 Grad
		amount = 120
		producer = SOV
	}
	add_equipment_to_stockpile = {
		type = SP_R_arty_0 #Type-81
		amount = 18
		producer = CHI
	}

	add_equipment_to_stockpile = {
		type = MR_Fighter1 #F-5
		amount = 7
		producer = USA
	}
	add_equipment_to_stockpile = {
		type = MR_Fighter1 #MiG-21
		amount = 4
		producer = SOV
	}
	add_equipment_to_stockpile = {
		type = AS_Fighter1 #MiG-23
		amount = 2
		producer = SOV
	}
	add_equipment_to_stockpile = {
		type = transport_plane1 #C-130
		amount = 4
		producer = USA
	}
	add_equipment_to_stockpile = {
		type = transport_helicopter1 #Mi-8
		amount = 7
		producer = SOV
	}
	add_equipment_to_stockpile = {
		type = attack_helicopter1 #Mi-24
		amount = 5
		producer = SOV
	}
}