﻿division_template = {
	name = "Mekaniserat Regemente"

	#division_names_group = SWE_MEC_04

	regiments = {
		Arm_Inf_Bat = { x = 0 y = 0 }
		Arm_Inf_Bat = { x = 0 y = 1 }
	}
	support = {
		armor_Comp = { x= 0 y = 0 }
		Arm_Recce_Comp = { x= 0 y = 1 }
		H_Engi_Comp = { x = 0 y = 2 }
		Arty_Battery = { x = 0 y = 3 }
		SP_AA_Battery = { x = 0 y = 4 }
	}
}

division_template = {
	name = "Livgardet"

	#division_names_group = SWE_MOT_02

	regiments = {
		L_Inf_Bat = { x = 0 y = 0 }
		L_Inf_Bat = { x = 0 y = 1 }
	}
}

division_template = {
	name = "Infanteriregemente"

	#division_names_group = SWE_INF_01

	regiments = {
		L_Inf_Bat = { x = 0 y = 0 }
		L_Inf_Bat = { x = 0 y = 1 }
	}
	support = {
		L_Engi_Comp = { x = 0 y = 0 }
		Arty_Battery = { x = 0 y = 1 }
	}
}

division_template = {
	name = "Amfiberegemente"

	#division_names_group = SWE_MAR_01

	regiments = {
		L_Marine_Bat = { x = 0 y = 0 }
	}
}

division_template = {
	name = "Norrlands Jägarregemente"

	#division_names_group = SWE_INF_03

	regiments = {
		Special_Forces = { x = 0 y = 0 }
		Special_Forces = { x = 0 y = 1 }
	}
	priority = 2
}

division_template = {
	name = "Jägarregemente"

	#division_names_group = SWE_AIR_01

	regiments = {
		Special_Forces = { x = 0 y = 0 }
		Special_Forces = { x = 0 y = 1 }
	}
	priority = 2
}

division_template = {
	name = "Specialförband"

	#division_names_group = SWE_AIR_01

	regiments = {
		Special_Forces = { x = 0 y = 0 }
	}
	priority = 2
}

units = {

####### Swedish Army #######

#4 armd, 2 inf, 1 arty regt
# Mobilization strength: 6 mech bde to be formed from 4 arm, 2 inf, 1 ary regiments
# total btn's: 16 mech, 6 jaeger, 1 airborne, 4 AA, 4 engineers
#
# Norrbotten, Södermanlands, Skaraborg Regementet, Gotlands regemente
# Södra Skånska Regementet, Jämtlands fältjägarregemente
# Norrlands dragonregemente, Livregementets Husarer

	division = {
		name = "Norrbottens Regemente (I 19)"
		# division_name = {
		# 	is_name_ordered = yes
		# 	name_order = 1
		# }
		location = 6165 #Boden
		division_template = "Mekaniserat Regemente"
		start_experience_factor = 0.5
		start_equipment_factor = 0.01
	}

	division = {
		name = "Södermanlands Regemente (P 10)"
		# division_name = {
		# 	is_name_ordered = yes
		# 	name_order = 2
		# }
		location = 11188 #Strängnäs
		division_template = "Mekaniserat Regemente"
		start_experience_factor = 0.5
		start_equipment_factor = 0.01
	}

	division = {
		name = "Jämtlands Fältjägarregemente (I 5)"
		# division_name = {
		# 	is_name_ordered = yes
		# 	name_order = 1
		# }
		location = 46 #Östersund
		division_template = "Infanteriregemente"
		start_experience_factor = 0.5
		start_equipment_factor = 0.01
	}

	division = {
		name = "Södra Skånska Regementet (P 7)"
		# division_name = {
		# 	is_name_ordered = yes
		# 	name_order = 2
		# }
		location = 9300 #Revingehed
		division_template = "Mekaniserat Regemente"
		start_experience_factor = 0.5
		start_equipment_factor = 0.01
	}

	division = {
		name = "Skaraborgs Regemente (P 4)"
		# division_name = {
		# 	is_name_ordered = yes
		# 	name_order = 3
		# }
		location = 3375 #Skaraborg
		division_template = "Mekaniserat Regemente"
		start_experience_factor = 0.5
		start_equipment_factor = 0.01
	}

	division = {
		name = "Gotlands Regemente (P 18)"
		# division_name = {
		# 	is_name_ordered = yes
		# 	name_order = 3
		# }
		location = 6258 #Gotland
		division_template = "Mekaniserat Regemente"
		start_experience_factor = 0.5
		start_equipment_factor = 0.01
	}

	division = {
		name = "Livgardet (LG)"
		# division_name = {
		# 	is_name_ordered = yes
		# 	name_order = 1
		# }
		location = 6050 #Stockholm
		division_template = "Livgardet"
		start_experience_factor = 0.5
		start_equipment_factor = 0.01
	}

	division = {
		name = "Vaxholms Amfibieregemente (Amf 1)"
		# division_name = {
		# 	is_name_ordered = yes
		# 	name_order = 1
		# }
		location = 161 #Vaxholm
		division_template = "Amfiberegemente"
		start_experience_factor = 0.5
		start_equipment_factor = 0.01
	}

	division = {
		name = "Älvsborgs Amfibieregemente (Amf 4)"
		# division_name = {
		# 	is_name_ordered = yes
		# 	name_order = 1
		# }
		location = 383 #Göteborg
		division_template = "Amfiberegemente"
		start_experience_factor = 0.5
		start_equipment_factor = 0.01
	}

	division = {
		name = "Livregementets Husarer (K 3)"
		# division_name = {
		# 	is_name_ordered = yes
		# 	name_order = 1
		# }
		location = 3063 #Karlsborg
		division_template = "Jägarregemente"
		start_experience_factor = 0.8
		start_equipment_factor = 0.01
	}

	division = {
		name = "Norrlands Dragonregemente (K 4)"
		# division_name = {
		# 	is_name_ordered = yes
		# 	name_order = 1
		# }
		location = 6024 #Arvidsjaur
		division_template = "Norrlands Jägarregemente"
		start_experience_factor = 0.8
		start_equipment_factor = 0.01
	}

	division = {
		name = "Särskilda Skyddsgruppen (SSG)"
		# division_name = {
		# 	is_name_ordered = yes
		# 	name_order = 1
		# }
		location = 3063 #Karlsborg
		division_template = "Specialförband"
		start_experience_factor = 0.9
		start_equipment_factor = 0.01
	}

	division = {
		name = "Särskilda Inhämtningsgruppen (SIG)"
		# division_name = {
		# 	is_name_ordered = yes
		# 	name_order = 1
		# }
		location = 3063 #Karlsborg
		division_template = "Specialförband"
		start_experience_factor = 0.9
		start_equipment_factor = 0.01
	}
}

instant_effect = {
	### Aircraft
	add_equipment_to_stockpile = {
		type = MR_Fighter3 #JAS-39
		amount = 104
	}
	add_equipment_to_stockpile = {
		type = MR_Fighter2 #JA-37
		amount = 130
	}
	add_equipment_to_stockpile = {
		type = Strike_fighter1 #AJ-37
		amount = 60
	}
	add_equipment_to_stockpile = {
		type = L_Strike_fighter1 #Sk-60
		amount = 100
	}
	add_equipment_to_stockpile = {
		type = transport_plane1 #C-130
		amount = 8
		producer = USA
	}
	add_equipment_to_stockpile = {
		type = transport_helicopter1 #Bo 105
		amount = 20
		producer = GER
	}
	add_equipment_to_stockpile = {
		type = transport_helicopter1
		amount = 5
	}
	add_equipment_to_stockpile = {
		type = transport_helicopter1
		amount = 14
		producer = USA
	}
	add_equipment_to_stockpile = {
		type = transport_helicopter1
		amount = 11
		producer = FRA
	}

	### Inf Equip
	add_equipment_to_stockpile = {
		type = infantry_weapons2 #1985
		amount = 8000
	}

	add_equipment_to_stockpile = {
		type = Anti_tank_1 #BILL
		amount = 340
	}

	add_equipment_to_stockpile = {
		type = Heavy_Anti_tank_0 #TOW
		amount = 160
		producer = USA
	}

	add_equipment_to_stockpile = {
		type = Anti_Air_1 #RBS 70
		amount = 250
	}

	add_equipment_to_stockpile = {
		type = SP_Anti_Air_1 #RBS 90
		amount = 60
	}

	add_equipment_to_stockpile = {
		type = SP_Anti_Air_0 #Hawk
		amount = 8
		producer = USA
	}

	add_equipment_to_stockpile = {
		type = command_control_equipment2
		amount = 940
	}

	### Vehicles

	add_equipment_to_stockpile = {
		type = mbt_hull_1
		variant_name = "Leopard 2A4"
		amount = 160
		producer = GER
	}
	add_equipment_to_stockpile = {
		type = mbt_hull_1
		variant_name = "Leopard 2A5"
		amount = 120
		producer = GER
	}
	add_equipment_to_stockpile = {
		type = APC_2 #MT-LB
		amount = 550
		producer = SOV
	}
	add_equipment_to_stockpile = {
		type = IFV_1 #BMP-1
		amount = 350
		producer = SOV
	}
	add_equipment_to_stockpile = {
		type = IFV_1 #pbv-302
		amount = 501
	}
	add_equipment_to_stockpile = {
		type = IFV_4 #cv-90
		amount = 500
	}
	add_equipment_to_stockpile = {
		type = APC_3 #XA-180
		amount = 55
		producer = FIN
	}
	add_equipment_to_stockpile = {
		type = APC_4 #XA-202
		amount = 168
		producer = FIN
	}
	add_equipment_to_stockpile = {
		type = APC_3 #BV-206
		amount = 2250
	}
	add_equipment_to_stockpile = {
		type = APC_4 #BV-208
		amount = 2250
	}
	add_equipment_to_stockpile = {
		type = util_vehicle_1 #Terrängbil 11
		amount = 2200
	}
	add_equipment_to_stockpile = {
		type = util_vehicle_2 #Terrängbil 13
		amount = 2200
	}
	add_equipment_to_stockpile = {
		type = util_vehicle_4 #Terrängbil 14/15
		amount = 800
	}

	### Artillery

	add_equipment_to_stockpile = {
		type = SP_arty_1 #BK-1C
		amount = 26
	}

	add_equipment_to_stockpile = {
		type = artillery_1 #FH-77
		amount = 271
	}

	if = {
		limit = { has_dlc = "Death or Dishonor" }
		GER = {
			create_production_license = {
				target = SWE
				equipment = {
					type = mbt_hull_1
					version = 2
				}
				cost_factor = 0
			}
		}
		else = {
			add_equipment_production = {
				equipment = {
					type = mbt_hull_1
					version = 2
					creator = "GER"
				}
				requested_factories = 1
				progress = 0.5
				efficiency = 50
			}
		}
	}

	if = {
		limit = { NOT = { has_dlc = "Man the Guns" } }
		add_equipment_production = {
			equipment = {
				type = missile_corvette_4 #Visby-class
				creator = "SWE"
			}
			requested_factories = 1
			progress = 0.6
			efficiency = 100
			amount = 6
		}
	}
}